{
  "ordersPipeline": {
    "waitTime": 60, "timeout" : 60,
    "stateMachineArn": "{{ data_pipeline_orders_step_function_state_machine_arn }}",
    "stateMachineInput": {
      "trustedOrdersEtlJob": {
        "jobName": "{{ stack_name }}-{{ env }}-trusted-orders-etl-job",
        "jobArgs": {
          "--enable-metrics": "",
          "--config_file": "s3://{{ bucket_name }}/config/optima-trusted-specs/orders.yml",
          "--date": "PLACE_HOLDER",
          "--day_of_the_week": "/",
          "--modified_at_date_since": ""
        },
        "waitTime": 60
      },
      "trustedOrdersCreateTable": {
        "database": "{{ optima_trusted_scratch_athena_schema_name }}",
        "table": "orders",
        "script": "s3://{{ optima_trusted_scratch_athena_schema_bucket_name_and_path }}/orders.ddl",
        "outputLocation": "s3://{{ optima_athena_results_bucket_name_and_path }}",
        "partition_folder" : "{{ optima_trusted_orders_bucket_name_and_path }}",
        "waitTime": 10
      },
      "exploreOrdersEtlJob": {
        "jobName": "{{ stack_name }}-{{ env }}-explore-orders-etl-job",
        "jobArgs": {
          "--enable-metrics": "",
          "--config_file": "s3://{{ bucket_name }}/config/optima-specs/orders.yml",
          "--date": "PLACE_HOLDER",
          "--day_of_the_week": "/",
          "--modified_at_date_since": ""
        },
        "waitTime": 60
      },
      "exploreOrderConsumerOrderItemsEtlJob": {
        "jobName": "{{ stack_name }}-{{ env }}-explore-order-consumer-order-items-etl-job",
        "jobArgs": {
          "--enable-metrics": "",
          "--config_file": "s3://{{ bucket_name }}/config/optima-specs/order_consumer_order_items.yml",
          "--date": "PLACE_HOLDER",
          "--day_of_the_week": "/",
          "--modified_at_date_since": ""
        },
        "waitTime": 60
      },
      "exploreOrderConsumersEtlJob": {
        "jobName": "{{ stack_name }}-{{ env }}-explore-order-consumers-etl-job",
        "jobArgs": {
          "--enable-metrics": "",
          "--config_file": "s3://{{ bucket_name }}/config/optima-specs/order_consumers.yml",
          "--date": "PLACE_HOLDER",
          "--day_of_the_week": "/",
          "--modified_at_date_since": ""
        },
        "waitTime": 60
      },
      "exploreOrderContactsEtlJob": {
        "jobName": "{{ stack_name }}-{{ env }}-explore-order-contacts-etl-job",
        "jobArgs": {
          "--enable-metrics": "",
          "--config_file": "s3://{{ bucket_name }}/config/optima-specs/order_contacts.yml",
          "--date": "PLACE_HOLDER",
          "--day_of_the_week": "/",
          "--modified_at_date_since": ""
        },
        "waitTime": 60
      },
      "exploreOrderItemFlightSegmentsEtlJob": {
        "jobName": "{{ stack_name }}-{{ env }}-explore-order-item-flight-segments-etl-job",
        "jobArgs": {
          "--enable-metrics": "",
          "--config_file": "s3://{{ bucket_name }}/config/optima-specs/order_item_flight_segments.yml",
          "--date": "PLACE_HOLDER",
          "--day_of_the_week": "/",
          "--modified_at_date_since": ""
        },
        "waitTime": 60
      },
      "exploreOrderItemFlightsEtlJob": {
        "jobName": "{{ stack_name }}-{{ env }}-explore-order-item-flights-etl-job",
        "jobArgs": {
          "--enable-metrics": "",
          "--config_file": "s3://{{ bucket_name }}/config/optima-specs/order_item_flights.yml",
          "--date": "PLACE_HOLDER",
          "--day_of_the_week": "/",
          "--modified_at_date_since": ""
        },
        "waitTime": 60
      },
      "exploreOrderItemsEtlJob": {
        "jobName": "{{ stack_name }}-{{ env }}-explore-order-items-etl-job",
        "jobArgs": {
          "--enable-metrics": "",
          "--config_file": "s3://{{ bucket_name }}/config/optima-specs/order_items.yml",
          "--date": "PLACE_HOLDER",
          "--day_of_the_week": "/",
          "--modified_at_date_since": ""
        },
        "waitTime": 60
      },
      "exploreOrdersCreateTable": {
        "database": "{{ optima_scratch_athena_schema_name }}",
        "table": "orders",
        "script": "s3://{{ optima_scratch_athena_schema_bucket_name_and_path }}/orders_table.ddl",
        "outputLocation": "s3://{{ optima_athena_results_bucket_name_and_path }}",
        "partition_folder" : "{{ optima_orders_bucket_name_and_path }}",
        "waitTime": 10
      },
      "exploreOrderConsumerOrderItemsCreateTable": {
        "database": "{{ optima_scratch_athena_schema_name }}",
        "table": "order_consumer_order_items",
        "script": "s3://{{ optima_scratch_athena_schema_bucket_name_and_path }}/order_consumer_order_items_table.ddl",
        "outputLocation": "s3://{{ optima_athena_results_bucket_name_and_path }}",
        "partition_folder" : "{{ optima_order_consumer_order_items_bucket_name_and_path }}",
        "waitTime": 10
      },
      "exploreOrderConsumersCreateTable": {
        "database": "{{ optima_scratch_athena_schema_name }}",
        "table": "order_consumers",
        "script": "s3://{{ optima_scratch_athena_schema_bucket_name_and_path }}/order_consumers_table.ddl",
        "outputLocation": "s3://{{ optima_athena_results_bucket_name_and_path }}",
        "partition_folder" : "{{ optima_order_consumers_bucket_name_and_path }}",
        "waitTime": 10
      },
      "exploreOrderContactsCreateTable": {
        "database": "{{ optima_scratch_athena_schema_name }}",
        "table": "order_contacts",
        "script": "s3://{{ optima_scratch_athena_schema_bucket_name_and_path }}/order_contacts_table.ddl",
        "outputLocation": "s3://{{ optima_athena_results_bucket_name_and_path }}",
        "partition_folder" : "{{ optima_order_contacts_bucket_name_and_path }}",
        "waitTime": 10
      },
      "exploreOrderItemFlightSegmentsCreateTable": {
        "database": "{{ optima_scratch_athena_schema_name }}",
        "table": "order_item_flight_segments",
        "script": "s3://{{ optima_scratch_athena_schema_bucket_name_and_path }}/order_item_flight_segments_table.ddl",
        "outputLocation": "s3://{{ optima_athena_results_bucket_name_and_path }}",
        "partition_folder" : "{{ optima_order_item_flight_segments_bucket_name_and_path }}",
        "waitTime": 10
      },
      "exploreOrderItemFlightsCreateTable": {
        "database": "{{ optima_scratch_athena_schema_name }}",
        "table": "order_item_flights",
        "script": "s3://{{ optima_scratch_athena_schema_bucket_name_and_path }}/order_item_flights_table.ddl",
        "outputLocation": "s3://{{ optima_athena_results_bucket_name_and_path }}",
        "partition_folder" : "{{ optima_order_item_flights_bucket_name_and_path }}",
        "waitTime": 10
      },
      "exploreOrderItemsCreateTable": {
        "database": "{{ optima_scratch_athena_schema_name }}",
        "table": "order_items",
        "script": "s3://{{ optima_scratch_athena_schema_bucket_name_and_path }}/order_items_table.ddl",
        "outputLocation": "s3://{{ optima_athena_results_bucket_name_and_path }}",
        "partition_folder" : "{{ optima_order_items_bucket_name_and_path }}",
        "waitTime": 10
      },
      "enrichOrderItemsFlightsOriginDestination": {
        "database": "{{ optima_scratch_athena_schema_name }}",
        "table": "order_item_flights_origin_destination",
        "parallelTasks": [
          {
            "s3": "s3://{{ optima_order_item_flights_origin_destination_bucket_name_and_path }}",
            "script": "s3://{{ bucket_name }}/config/optima-ddls/athena/order_item_flights_origin_destination.ddl"
          }
        ],
        "outputLocation": "s3://{{ optima_athena_results_bucket_name_and_path }}",
        "partition_folder" : "{{ optima_order_item_flights_origin_destination_bucket_name_and_path }}",
        "waitTime": 10
      },
      "enrichOrderItemsFlights": {
        "database": "{{ optima_scratch_athena_schema_name }}",
        "table": "order_item_flights_enriched",
        "parallelTasks": [
          {
            "s3": "s3://{{ optima_order_item_flights_enriched_bucket_name_and_path }}",
            "script": "s3://{{ bucket_name }}/config/optima-ddls/athena/order_item_flights_enriched.ddl"
          }
        ],
        "outputLocation": "s3://{{ optima_athena_results_bucket_name_and_path }}",
        "partition_folder" : "{{ optima_order_item_flights_enriched_bucket_name_and_path }}",
        "waitTime": 10
      }
    }
  }
}