{
  "stateMachineArn": "{{ data_pipeline_master_step_function_state_machine_arn }}",
  "stateMachineInput":
  {
    "processEventsFromInDays" : "auto",
    "exportEnabled": "{{ run_export }}",
    "exportFullCopy": "{{ enable_export_full_copy }}",
    "optimaEvents" : "{{ optima_events_bucket_name_and_path }}",
    "optimaBucket" : "{{ bucket_name }}",
    "notifySNS": "{{ notify_external_customer }}",
    "guestsPipeline": {
      "status": "{{ guestsPipeline }}",
      "trustedGuestsEtlJob" : {  "status": "{{ trustedGuestsEtlJob }}", "timeout" : "{{ guests_etl_trusted_timeout}}" },
      "trustedGuestsCreateTable" : {  "status": "{{ trustedGuestsCreateTable }}", "timeout" : "{{ guests_sql_trusted_timeout}}" },
      "exploreGuestsEtlJob" : {  "status": "{{ exploreGuestsEtlJob }}", "timeout" : "{{ guests_etl_explore_timeout}}" },
      "exploreGuestEmailsEtlJob" : {  "status": "{{ exploreGuestEmailsEtlJob }}", "timeout" : "{{ guests_etl_explore_timeout}}" },
      "exploreGuestIdentifiersEtlJob" : {  "status": "{{ exploreGuestIdentifiersEtlJob }}", "timeout" : "{{ guests_etl_explore_timeout}}" },
      "exploreGuestSubscriptionsEtlJob" : {  "status": "{{ exploreGuestSubscriptionsEtlJob }}", "timeout" : "{{ guests_etl_explore_timeout}}" },
      "exploreGuestDataExtensionsEtlJob" : {  "status": "{{ exploreGuestDataExtensionsEtlJob }}", "timeout" : "{{ guests_guest_dex_timeout}}" },
      "exploreGuestsCreateTable" : {  "status": "{{ exploreGuestsCreateTable }}", "timeout" : "{{ guests_sql_explore_timeout}}" },
      "exploreGuestEmailsCreateTable" : {  "status": "{{ exploreGuestEmailsCreateTable }}", "timeout" : "{{ guests_sql_explore_timeout}}" },
      "exploreGuestIdentifiersCreateTable" : {  "status": "{{ exploreGuestIdentifiersCreateTable }}", "timeout" : "{{ guests_sql_explore_timeout}}" },
      "exploreGuestSubscriptionsCreateTable" : {  "status": "{{ exploreGuestSubscriptionsCreateTable }}", "timeout" : "{{ guests_sql_explore_timeout}}" }
    },
    "eventsPipeline": {
      "status": "{{ eventsPipeline }}",
      "trustedEventsEtlJob" : {  "status": "{{ trustedEventsEtlJob }}", "timeout" : "{{ events_etl_trusted_timeout}}" },
      "trustedEventsCreateTable" : {  "status": "{{ trustedEventsCreateTable }}", "timeout" : "{{ events_sql_trusted_timeout}}" },
      "exploreEventsEtlJob" : {  "status": "{{ exploreEventsEtlJob }}", "timeout" : "{{ events_etl_explore_timeout}}" },
      "exploreEventsAddEtlJob" : {  "status": "{{ exploreEventsAddEtlJob }}", "timeout" : "{{ events_etl_explore_timeout}}" },
      "exploreEventsCalculatorEtlJob" : {  "status": "{{ exploreEventsCalculatorEtlJob }}", "timeout" : "{{ events_etl_explore_timeout}}" },
      "exploreEventsContactRequestEtlJob" : {  "status": "{{ exploreEventsContactRequestEtlJob }}", "timeout" : "{{ events_etl_explore_timeout}}" },
      "exploreEventsCheckoutEtlJob" : {  "status": "{{ exploreEventsCheckoutEtlJob }}", "timeout" : "{{ events_etl_explore_timeout}}" },
      "exploreEventsCampaignTrackingEtlJob" : {  "status": "{{ exploreEventsCampaignTrackingEtlJob }}", "timeout" : "{{ events_etl_explore_timeout}}" },
      "exploreEventsIdentityEtlJob" : {  "status": "{{ exploreEventsIdentityEtlJob }}", "timeout" : "{{ events_etl_explore_timeout}}" },
      "exploreEventsSearchEtlJob" : {  "status": "{{ exploreEventsSearchEtlJob }}", "timeout" : "{{ events_etl_explore_timeout}}" },
      "exploreEventsTrackingExecutionEtlJob" : {  "status": "{{ exploreEventsTrackingExecutionEtlJob }}", "timeout" : "{{ events_etl_explore_timeout}}" },
      "exploreEventsTrackingInteractionEtlJob" : {  "status": "{{ exploreEventsTrackingInteractionEtlJob }}", "timeout" : "{{ events_etl_explore_timeout}}" },
      "exploreEventsViewEtlJob" : {  "status": "{{ exploreEventsViewEtlJob }}", "timeout" : "{{ events_etl_explore_timeout}}" },
      "exploreEventsCreateTable" : {  "status": "{{ exploreEventsCreateTable }}", "timeout" : "{{ events_sql_explore_timeout}}" },
      "exploreEventsAddCreateTable" : {  "status": "{{ exploreEventsAddCreateTable }}", "timeout" : "{{ events_sql_explore_timeout}}" },
      "exploreEventsCalculatorCreateTable" : {  "status": "{{ exploreEventsCalculatorCreateTable }}", "timeout" : "{{ events_sql_explore_timeout}}" },
      "exploreEventsCampaignTrackingCreateTable" : {  "status": "{{ exploreEventsCampaignTrackingCreateTable }}", "timeout" : "{{ events_sql_explore_timeout}}" },
      "exploreEventsCheckoutCreateTable" : {  "status": "{{ exploreEventsCheckoutCreateTable }}", "timeout" : "{{ events_sql_explore_timeout}}" },
      "exploreEventsContactRequestCreateTable" : {  "status": "{{ exploreEventsContactRequestCreateTable }}", "timeout" : "{{ events_sql_explore_timeout}}" },
      "exploreEventsIdentityCreateTable" : {  "status": "{{ exploreEventsIdentityCreateTable }}", "timeout" : "{{ events_sql_explore_timeout}}" },
      "exploreEventsSearchCreateTable" : {  "status": "{{ exploreEventsSearchCreateTable }}", "timeout" : "{{ events_sql_explore_timeout}}" },
      "exploreEventsTrackingExecutionCreateTable" : {  "status": "{{ exploreEventsTrackingExecutionCreateTable }}", "timeout" : "{{ events_sql_explore_timeout}}" },
      "exploreEventsTrackingInteractionCreateTable" : {  "status": "{{ exploreEventsTrackingInteractionCreateTable }}", "timeout" : "{{ events_sql_explore_timeout}}" },
      "exploreEventsViewCreateTable" : {  "status": "{{ exploreEventsViewCreateTable }}", "timeout" : "{{ events_sql_explore_timeout}}" }
    },
    "ordersPipeline": {
      "status": "{{ ordersPipeline }}",
      "trustedOrdersEtlJob" : {  "status": "{{ trustedOrdersEtlJob }}", "timeout" : "{{ orders_etl_trusted_timeout}}" },
      "trustedOrdersCreateTable" : {  "status": "{{ trustedOrdersCreateTable }}", "timeout" : "{{ orders_sql_trusted_timeout}}" },
      "exploreOrdersEtlJob" : {  "status": "{{ exploreOrdersEtlJob }}", "timeout" : "{{ orders_etl_explore_timeout}}" },
      "exploreOrderConsumerOrderItemsEtlJob" : {  "status": "{{ exploreOrderConsumerOrderItemsEtlJob }}", "timeout" : "{{ orders_etl_explore_timeout}}" },
      "exploreOrderConsumersEtlJob" : {  "status": "{{ exploreOrderConsumersEtlJob }}", "timeout" : "{{ orders_etl_explore_timeout}}" },
      "exploreOrderContactsEtlJob" : {  "status": "{{ exploreOrderContactsEtlJob }}", "timeout" : "{{ orders_etl_explore_timeout}}" },
      "exploreOrderItemFlightSegmentsEtlJob" : {  "status": "{{ exploreOrderItemFlightSegmentsEtlJob }}", "timeout" : "{{ orders_etl_explore_timeout}}" },
      "exploreOrderItemFlightsEtlJob" : {  "status": "{{ exploreOrderItemFlightsEtlJob }}", "timeout" : "{{ orders_etl_explore_timeout}}" },
      "exploreOrderItemsEtlJob" : {  "status": "{{ exploreOrderItemsEtlJob }}", "timeout" : "{{ orders_etl_explore_timeout}}" },
      "exploreOrdersCreateTable" : {  "status": "{{ exploreOrdersCreateTable }}", "timeout" : "{{ orders_sql_explore_timeout}}" },
      "exploreOrderConsumerOrderItemsCreateTable" : {  "status": "{{ exploreOrderConsumerOrderItemsCreateTable }}", "timeout" : "{{ orders_sql_explore_timeout}}" },
      "exploreOrderConsumersCreateTable" : {  "status": "{{ exploreOrderConsumersCreateTable }}", "timeout" : "{{ orders_sql_explore_timeout}}" },
      "exploreOrderContactsCreateTable" : {  "status": "{{ exploreOrderContactsCreateTable }}", "timeout" : "{{ orders_sql_explore_timeout}}" },
      "exploreOrderItemFlightSegmentsCreateTable" : {  "status": "{{ exploreOrderItemFlightSegmentsCreateTable }}", "timeout" : "{{ orders_sql_explore_timeout}}" },
      "exploreOrderItemFlightsCreateTable" : {  "status": "{{ exploreOrderItemFlightsCreateTable }}", "timeout" : "{{ orders_sql_explore_timeout}}" },
      "exploreOrderItemsCreateTable" : {  "status": "{{ exploreOrderItemsCreateTable }}", "timeout" : "{{ orders_sql_explore_timeout}}" },
      "enrichOrderItemsFlightsOriginDestination" : {  "status": "{{ enrichOrderItemsFlightsOriginDestination }}", "timeout" : "{{ orders_sql_explore_timeout}}" },
      "enrichOrderItemsFlights" : {  "status": "{{ enrichOrderItemsFlights }}", "timeout" : "{{ orders_sql_explore_timeout}}" }
    },
    "sessionsPipeline": {
      "status": "{{ sessionsPipeline }}",
      "trustedSessionsEtlJob" : {  "status": "{{ trustedSessionsEtlJob }}", "timeout" : "{{ sessions_etl_trusted_timeout}}" },
      "trustedSessionsCreateTable" : {  "status": "{{ trustedSessionsCreateTable }}", "timeout" : "{{ sessions_sql_trusted_timeout}}" },
      "exploreSessionsEtlJob" : {  "status": "{{ exploreSessionsEtlJob }}", "timeout" : "{{ sessions_etl_explore_timeout}}" },
      "exploreSessionUTMsCreateTable" : {  "status": "{{ exploreSessionUTMsCreateTable }}", "timeout" : "{{ sessions_sql_explore_timeout}}" },
      "exploreSessionsCreateTable" : {  "status": "{{ exploreSessionsCreateTable }}", "timeout" : "{{ sessions_sql_explore_timeout}}" }
    },
    "referencePipeline": {
      "status": "{{ referencePipeline }}",
      "segmentsEtlJob" : {  "status": "{{ segmentsEtlJob }}", "timeout" : "{{ sessions_etl_trusted_timeout}}" },
      "segmentsCreateTable" : {  "status": "{{ segmentsCreateTable }}", "timeout" : "{{ sessions_sql_trusted_timeout}}" },
      "offersReadData" : {  "status": "{{ offersReadData }}", "timeout" : "{{ sessions_sql_trusted_timeout}}" },
      "offersCreateTable" : {  "status": "{{ offersCreateTable }}", "timeout" : "{{ sessions_sql_trusted_timeout}}" },
      "flowsReadData" : {  "status": "{{ flowsReadData }}", "timeout" : "{{ flows_sql_trusted_timeout}}" },
      "flowsCreateTable" : {  "status": "{{ flowsCreateTable }}", "timeout" : "{{ flows_sql_trusted_timeout}}" },
      "decisionsReadData" : {  "status": "{{ decisionsReadData }}", "timeout" : "{{ decisions_sql_trusted_timeout}}" },
      "decisionsCreateTable" : {  "status": "{{ decisionsCreateTable }}", "timeout" : "{{ decisions_sql_trusted_timeout}}" },
      "decisionVariantsReadData" : {  "status": "{{ decisionVariantsReadData }}", "timeout" : "{{ decision_variants_sql_trusted_timeout}}" },
      "decisionVariantsCreateTable" : {  "status": "{{ decisionVariantsCreateTable }}", "timeout" : "{{ decision_variants_sql_trusted_timeout}}" }
    },
    "viewsPipeline": {
      "status": "{{ viewsPipeline }}",
      "exploreGuestsCreateView" : {  "status": "{{ exploreGuestsCreateView }}", "timeout" : "{{ views_timeout}}" },
      "exploreGuestEmailsCreateView" : {  "status": "{{ exploreGuestEmailsCreateView }}", "timeout" : "{{ views_timeout}}" },
      "exploreGuestIdentifiersCreateView" : {  "status": "{{ exploreGuestIdentifiersCreateView }}", "timeout" : "{{ views_timeout}}" },
      "exploreGuestSubscriptionsCreateView" : {  "status": "{{ exploreGuestSubscriptionsCreateView }}", "timeout" : "{{ views_timeout}}" },
      "exploreGuestDataExtensionsCreateView" : {  "status": "{{ exploreGuestDataExtensionsCreateView }}", "timeout" : "{{ views_timeout}}" },
      "exploreGuestStatsCreateView" : {  "status": "{{ exploreGuestStatsCreateView }}", "timeout" : "{{ views_timeout}}" },
      "exploreOrdersCreateView" : {  "status": "{{ exploreOrdersCreateView }}", "timeout" : "{{ views_timeout}}" },
      "exploreOrderConsumerOrderItemsCreateView" : {  "status": "{{ exploreOrderConsumerOrderItemsCreateView }}", "timeout" : "{{ views_timeout}}" },
      "exploreOrderConsumersCreateView" : {  "status": "{{ exploreOrderConsumersCreateView }}", "timeout" : "{{ views_timeout}}" },
      "exploreOrderContactsCreateView" : {  "status": "{{ exploreOrderContactsCreateView }}", "timeout" : "{{ views_timeout}}" },
      "exploreOrderItemFlightSegmentsCreateView" : {  "status": "{{ exploreOrderItemFlightSegmentsCreateView }}", "timeout" : "{{ views_timeout}}" },
      "exploreOrderItemFlightsCreateView" : {  "status": "{{ exploreOrderItemFlightsCreateView }}", "timeout" : "{{ views_timeout}}" },
      "exploreOrderItemsCreateView" : {  "status": "{{ exploreOrderItemsCreateView }}", "timeout" : "{{ views_timeout}}" },
      "exploreOrderStatsCreateView" : {  "status": "{{ exploreOrderStatsCreateView }}", "timeout" : "{{ views_timeout}}" },
      "exploreSessionsCreateView" : {  "status": "{{ exploreSessionsCreateView }}", "timeout" : "{{ views_timeout}}" },
      "exploreSessionUTMsCreateView" : {  "status": "{{ exploreSessionUTMsCreateView }}", "timeout" : "{{ views_timeout}}" },
      "exploreSessionStatsCreateView" : {  "status": "{{ exploreSessionStatsCreateView }}", "timeout" : "{{ views_timeout}}" },
      "exploreEventsCreateView" : {  "status": "{{ exploreEventsCreateView }}", "timeout" : "{{ views_timeout}}" },
      "exploreEventsAddCreateView" : {  "status": "{{ exploreEventsAddCreateView }}", "timeout" : "{{ views_timeout}}" },
      "exploreEventsCalculatorCreateView" : {  "status": "{{ exploreEventsCalculatorCreateView }}", "timeout" : "{{ views_timeout}}" },
      "exploreEventsCampaignTrackingCreateView" : {  "status": "{{ exploreEventsCampaignTrackingCreateView }}", "timeout" : "{{ views_timeout}}" },
      "exploreEventsCheckoutCreateView" : {  "status": "{{ exploreEventsCheckoutCreateView }}", "timeout" : "{{ views_timeout}}" },
      "exploreEventsContactRequestCreateView" : {  "status": "{{ exploreEventsContactRequestCreateView }}", "timeout" : "{{ views_timeout}}" },
      "exploreEventsIdentityCreateView" : {  "status": "{{ exploreEventsIdentityCreateView }}", "timeout" : "{{ views_timeout}}" },
      "exploreEventsSearchCreateView" : {  "status": "{{ exploreEventsSearchCreateView }}", "timeout" : "{{ views_timeout}}" },
      "exploreEventsTrackingExecutionCreateView" : {  "status": "{{ exploreEventsTrackingExecutionCreateView }}", "timeout" : "{{ views_timeout}}" },
      "exploreEventsTrackingInteractionCreateView" : {  "status": "{{ exploreEventsTrackingInteractionCreateView }}", "timeout" : "{{ views_timeout}}" },
      "exploreEventsViewCreateView" : {  "status": "{{ exploreEventsViewCreateView }}", "timeout" : "{{ views_timeout}}" },
      "exploreEventStatsCreateView" : {  "status": "{{ exploreEventStatsCreateView }}", "timeout" : "{{ views_timeout}}" },
      "segmentsCreateView" : {  "status": "{{ segmentsCreateView }}", "timeout" : "{{ views_timeout}}" },
      "offersCreateView" : {  "status": "{{ offersCreateView }}", "timeout" : "{{ views_timeout}}" },
      "flowsCreateView" : {  "status": "{{ flowsCreateView }}", "timeout" : "{{ views_timeout}}" },
      "decisionsCreateView" : {  "status": "{{ decisionsCreateView }}", "timeout" : "{{ views_timeout}}" },
      "decisionVariantsCreateView" : {  "status": "{{ decisionVariantsCreateView }}", "timeout" : "{{ views_timeout}}" }
    },
      "guestsStatsPipeline": {
        "status": "{{ guestsStatsPipeline }}",
        "monthsSinceLastOrder": { "status": "{{ monthsSinceLastOrder }}", "timeout" : "{{ guests_stats_timeout}}" },
        "lifetimeSpend": { "status": "{{ lifetimeSpend }}", "timeout" : "{{ guests_stats_timeout}}" },
        "ninetyDaysSpend": { "status": "{{ ninetyDaysSpend }}", "timeout" : "{{ guests_stats_timeout}}" },
        "lifetimeOrders": { "status": "{{ lifetimeOrders }}", "timeout" : "{{ guests_stats_timeout}}" },
        "ninetyDaysOrders": { "status": "{{ ninetyDaysOrders }}", "timeout" : "{{ guests_stats_timeout}}" },
        "mergeStatsGuests": { "status": "{{ mergeStatsGuests }}", "timeout" : "{{ guests_stats_timeout}}" }
      },
      "ordersStatsPipeline": {
        "status": "{{ ordersStatsPipeline }}",
        "totalPrice": { "status": "{{ totalPriceOrderStats }}", "timeout" : "{{ orders_stats_timeout}}" },
        "totalItems": { "status": "{{ totalItemsOrderStats }}", "timeout" : "{{ orders_stats_timeout}}" },
        "numberOfAdults": { "status": "{{ numberOfAdultsOrderStats }}", "timeout" : "{{ orders_stats_timeout}}" },
        "mergeStatsOrders": { "status": "{{ mergeStatsOrdersOrderStats }}", "timeout" : "{{ orders_stats_timeout}}" }
      },
      "sessionsStatsPipeline": {
        "status": "{{ sessionsStatsPipeline }}",
        "duration": { "status": "{{ sessionDurationStats }}", "timeout" : "{{ sessions_stats_timeout}}" },
        "mergeStatsSessions": { "status": "{{ mergeStatsSessionsStats }}", "timeout" : "{{ sessions_stats_timeout}}" }
      },
      "eventsStatsPipeline": {
        "status": "{{ eventsStatsPipeline }}",
        "eventsCountByPartition": { "status": "{{ eventsCountByPartitionStats }}", "timeout" : "{{ events_stats_timeout}}" },
        "mergeStatsEvents": { "status": "{{ mergeStatsEventsStats }}", "timeout" : "{{ events_stats_timeout}}" }
      },
    "dataQualityPipeline": {
      "status": "{{ dataQualityPipeline }}"
    },
    "lookerPipeline": {
    "status": "{{ lookerPipeline }}",
      "pushModel" : "{{ push_looker_model }}"
  }

  }

}

