{
      "eventsStatsPipeline": {
        "waitTime": 60,
        "stateMachineArn": "{{ data_pipeline_events_stats_step_function_state_machine_arn }}",
        "stateMachineInput": {
          "eventsCountByPartition": {
            "statsOutputLocation": "s3://{{ optima_event_stats_partition_counts_bucket_name_and_path }}",
            "database": "{{ optima_scratch_athena_schema_name_main }}",
            "script": "s3://{{ bucket_name }}/config/optima-stats-ddls/event-stats-partition-counts.ddl",
            "outputLocation": "s3://{{ optima_athena_results_bucket_name_and_path }}",
            "waitTime": 10
          },
          "mergeStatsEvents": {
            "statsOutputLocation": "s3://{{ optima_event_stats_bucket_name_and_path }}",
            "database": "{{ optima_scratch_athena_schema_name_main }}",
            "script": "s3://{{ bucket_name }}/config/optima-stats-ddls/event-stats.ddl",
            "outputLocation": "s3://{{ optima_athena_results_bucket_name_and_path }}",
            "waitTime": 10
          }
        }
      }
}

