{
  "Comment": "The Optima Data Pipeline",
  "StartAt": "Notify Start",
  "States": {
    "Notify Start": {
      "Type": "Task",
      "Resource": "{{ lambda_notify_gchat_arn }}",
      "Parameters": {
        "msg": "Events pipeline started for {{ stack_name }}"
      },
      "InputPath": "$",
      "ResultPath": "$.msg",
      "Next": "Trusted Parallel"
    },
    "Trusted Parallel": {
      "Type": "Parallel",
      "Next": "Main Explore and SQL Parallel",
      "ResultPath": "$.trustedJobsStatus",
      "Branches": [
        {% for item in optima_events_pipeline.trusted.branches %}
        {% include './templates/aws-step-functions/optima-data-pipeline-task-template.json' %}{% if not loop.last %},{%endif%}
        {% endfor %}
      ]
    },
    "Main Explore and SQL Parallel" : {
      "Type": "Parallel",
      "Next": "SQL Parallel",
      "ResultPath": "$.sqlExploreStatus",
      "Branches": [
        {
          "StartAt": "Explore Parallel",
          "States": {
            "Explore Parallel": {
              "Type": "Parallel",
              "End": true,
              "ResultPath": "$.exploreJobsStatus",
              "OutputPath": "$.exploreJobsStatus",
              "Branches": [
                {% for item in optima_events_pipeline.explore.branches %}
                {% include './templates/aws-step-functions/optima-data-pipeline-task-template.json' %}{% if not loop.last %},{%endif%}
                {% endfor %}
              ]
            }
          }
        },
        {
          "StartAt": "Trusted SQL Parallel",
          "States": {
            "Trusted SQL Parallel": {
              "Type": "Parallel",
              "End": true,
              "ResultPath": "$.trustedSqlStatus",
              "OutputPath": "$.trustedSqlStatus",
              "Branches": [
                {% for item in optima_events_pipeline.trustedsql.branches %}
                {% include './templates/aws-step-functions/optima-data-pipeline-task-template.json' %}{% if not loop.last %},{%endif%}
                {% endfor %}
              ]
            }
          }
        }
      ]
    },
    "SQL Parallel": {
      "Type": "Parallel",
      "Next": "Add Partitions Parallel",
      "ResultPath": "$.exploreSqlStatus",
      "Branches": [
        {% for item in optima_events_pipeline.sql.branches %}
        {% include './templates/aws-step-functions/optima-data-pipeline-task-template.json' %}{% if not loop.last %},{%endif%}
        {% endfor %}
      ]
    },
    "Add Partitions Parallel": {
      "Type": "Parallel",
      "Next": "Notify End",
      "ResultPath": "$.addPartitions",
      "Branches": [
        {% for item in optima_events_pipeline.partitions.branches %}
        {% include './templates/aws-step-functions/optima-data-pipeline-task-template.json' %}{% if not loop.last %},{%endif%}
        {% endfor %}
      ]
    },
    "Notify End": {
      "Type": "Task",
      "Resource": "{{ lambda_notify_gchat_arn }}",
      "Parameters": {
        "msg": "Events pipeline ended for {{ stack_name }}"
      },
      "ResultPath": "$.msg",
      "End": true
    }
  }
}